word,regular_exp,regular_exp_status,porter,porter_status,lancaster,lancaster_status
You,you,1,you,1,you,1
probably,probabl,0,probabl,0,prob,0
worked,work,1,work,1,work,1
means,mean,1,mean,1,mean,1
following,follow,1,follow,1,follow,1
character,character,1,charact,0,charact,0
deprived,depriv,0,depriv,0,depr,0
its,it,1,it,1,it,1
special,special,1,special,1,spec,0
powers,power,1,power,1,pow,0
literally,literall,0,liter,0,lit,0
specific,specific,1,specif,0,spec,0
character,character,1,charact,0,charact,0
Thus,thu,0,thu,0,thu,0
while,while,1,while,1,whil,0
special,special,1,special,1,spec,0
only,onl,0,onli,0,on,0
matches,matche,0,match,1,match,1
The,the,1,the,1,the,1
braced,brac,0,brace,1,brac,0
expressions,expression,1,express,1,express,1
like,like,1,like,1,lik,0
specify,specif,0,specifi,0,spec,1
number,number,1,number,1,numb,0
repeats,repeat,1,repeat,1,rep,0
previous,previou,0,previou,0,prevy,0
The,the,1,the,1,the,1
pipe,pipe,1,pipe,1,pip,0
character,character,1,charact,0,charact,0
indicates,indicate,1,indic,0,ind,0
choice,choice,1,choic,0,cho,0
material,material,1,materi,0,mat,0
its,it,1,it,1,it,1
its,it,1,it,1,it,1
Parentheses,parenthese,1,parenthes,0,parenthes,0
indicate,indicate,1,indic,0,ind,0
scope,scope,1,scope,1,scop,0
operator,operator,1,oper,0,op,0
they,the,0,they,1,they,1
used,us,0,use,1,us,0
together,together,1,togeth,0,togeth,0
pipe,pipe,1,pipe,1,pip,0
disjunction,disjunction,1,disjunct,1,disjunct,0
like,like,1,like,1,lik,0
this,thi,0,thi,0,thi,0
matching,match,1,match,1,match,1
It,it,1,it,1,it,1
instructive,instructive,1,instruct,1,instruct,1
happens,happen,1,happen,1,hap,0
parentheses,parenthese,1,parenthes,0,parenthes,0
expression,expression,1,express,1,express,1
above,above,0,abov,0,abov,0